{
  "content": "Worst Rated Beers in the World",
  "source": "https://www.beeradvocate.com/beer/worst/",
  "beers": [
    {
      "rank": 1,
      "beer": "Budweiser Select 55",
      "brewery": "Anheuser-Busch",
      "category": "Light Lager",
      "alcohol": "2.40%",
      "ratings": "627",
      "score": "1.65"
    },
    {
      "rank": 2,
      "beer": "Natural Light",
      "brewery": "Anheuser-Busch",
      "category": "Light Lager",
      "alcohol": "4.20%",
      "ratings": "2,380",
      "score": "1.76"
    },
    {
      "rank": 3,
      "beer": "Sharp's",
      "brewery": "Miller Brewing Co.",
      "category": "Low-Alcohol Beer",
      "alcohol": "0.40%",
      "ratings": "174",
      "score": "1.72"
    },
    {
      "rank": 4,
      "beer": "Keystone Light",
      "brewery": "Coors Brewing Company (Molson-Coors)",
      "category": "Light Lager",
      "alcohol": "4.10%",
      "ratings": "2,190",
      "score": "1.84"
    },
    {
      "rank": 5,
      "beer": "Beer 30 Light",
      "brewery": "Melanie Brewing Company",
      "category": "Light Lager",
      "alcohol": "4.00%",
      "ratings": "105",
      "score": "1.66"
    },
    {
      "rank": 6,
      "beer": "Miller 64",
      "brewery": "Miller Brewing Co.",
      "category": "Light Lager",
      "alcohol": "2.80%",
      "ratings": "841",
      "score": "1.83"
    },
    {
      "rank": 7,
      "beer": "Natural Ice",
      "brewery": "Anheuser-Busch",
      "category": "American Adjunct Lager",
      "alcohol": "5.90%",
      "ratings": "1,583",
      "score": "1.85"
    },
    {
      "rank": 8,
      "beer": "Milwaukee's Best Light",
      "brewery": "Miller Brewing Co.",
      "category": "Light Lager",
      "alcohol": "4.20%",
      "ratings": "735",
      "score": "1.84"
    },
    {
      "rank": 9,
      "beer": "Bud Light",
      "brewery": "Anheuser-Busch",
      "category": "Light Lager",
      "alcohol": "4.20%",
      "ratings": "6,636",
      "score": "1.88"
    },
    {
      "rank": 10,
      "beer": "Busch Ice",
      "brewery": "Anheuser-Busch",
      "category": "American Adjunct Lager",
      "alcohol": "5.90%",
      "ratings": "365",
      "score": "1.85"
    },
    {
      "rank": 11,
      "beer": "Bud Ice",
      "brewery": "Anheuser-Busch",
      "category": "American Adjunct Lager",
      "alcohol": "5.50%",
      "ratings": "1,269",
      "score": "1.93"
    },
    {
      "rank": 12,
      "beer": "Busch Light",
      "brewery": "Anheuser-Busch",
      "category": "Light Lager",
      "alcohol": "4.10%",
      "ratings": "1,853",
      "score": "1.94"
    },
    {
      "rank": 13,
      "beer": "Michelob Ultra",
      "brewery": "Anheuser-Busch",
      "category": "Light Lager",
      "alcohol": "4.20%",
      "ratings": "2,734",
      "score": "1.95"
    },
    {
      "rank": 14,
      "beer": "Bud Light & Clamato Chelada",
      "brewery": "Anheuser-Busch",
      "category": "Fruit and Field Beer",
      "alcohol": "4.20%",
      "ratings": "458",
      "score": "1.92"
    },
    {
      "rank": 15,
      "beer": "Keystone Premium",
      "brewery": "Coors Brewing Company (Molson-Coors)",
      "category": "American Adjunct Lager",
      "alcohol": "4.40%",
      "ratings": "160",
      "score": "1.85"
    },
    {
      "rank": 16,
      "beer": "Corona Light",
      "brewery": "Grupo Modelo S.A. de C.V.",
      "category": "Light Lager",
      "alcohol": "4.10%",
      "ratings": "2,180",
      "score": "1.98"
    },
    {
      "rank": 17,
      "beer": "Carlton Cold",
      "brewery": "Carlton & United Breweries, Ltd.",
      "category": "American Adjunct Lager",
      "alcohol": "4.90%",
      "ratings": "51",
      "score": "1.66"
    },
    {
      "rank": 18,
      "beer": "Keystone Lager",
      "brewery": "Molson Coors Canada",
      "category": "American Adjunct Lager",
      "alcohol": "4.90%",
      "ratings": "148",
      "score": "1.9"
    },
    {
      "rank": 19,
      "beer": "O'Doul's",
      "brewery": "Anheuser-Busch",
      "category": "Low-Alcohol Beer",
      "alcohol": "0.50%",
      "ratings": "667",
      "score": "2.03"
    },
    {
      "rank": 20,
      "beer": "Red Dog",
      "brewery": "Miller Brewing Co.",
      "category": "American Adjunct Lager",
      "alcohol": "4.80%",
      "ratings": "801",
      "score": "2.04"
    },
    {
      "rank": 21,
      "beer": "Coors Light",
      "brewery": "Coors Brewing Company (Molson-Coors)",
      "category": "Light Lager",
      "alcohol": "4.20%",
      "ratings": "5,716",
      "score": "2.06"
    },
    {
      "rank": 22,
      "beer": "Keystone Ice",
      "brewery": "Molson Coors Canada",
      "category": "American Adjunct Lager",
      "alcohol": "5.50%",
      "ratings": "53",
      "score": "1.72"
    },
    {
      "rank": 23,
      "beer": "Busch Beer",
      "brewery": "Anheuser-Busch",
      "category": "American Adjunct Lager",
      "alcohol": "4.30%",
      "ratings": "1,922",
      "score": "2.08"
    },
    {
      "rank": 24,
      "beer": "Budweiser Select",
      "brewery": "Anheuser-Busch",
      "category": "Light Lager",
      "alcohol": "4.30%",
      "ratings": "1,361",
      "score": "2.08"
    },
    {
      "rank": 25,
      "beer": "Hurricane Malt Liquor",
      "brewery": "Anheuser-Busch",
      "category": "Malt Liquor",
      "alcohol": "6.00%",
      "ratings": "258",
      "score": "2.03"
    },
    {
      "rank": 26,
      "beer": "Icehouse",
      "brewery": "Miller Brewing Co.",
      "category": "American Adjunct Lager",
      "alcohol": "5.50%",
      "ratings": "1,368",
      "score": "2.09"
    },
    {
      "rank": 27,
      "beer": "King Cobra Premium Malt Liquor",
      "brewery": "Anheuser-Busch",
      "category": "Malt Liquor",
      "alcohol": "6.00%",
      "ratings": "593",
      "score": "2.12"
    },
    {
      "rank": 28,
      "beer": "Bud Light Lime-A-Rita",
      "brewery": "Anheuser-Busch",
      "category": "Malt Liquor",
      "alcohol": "8.00%",
      "ratings": "761",
      "score": "2.13"
    },
    {
      "rank": 29,
      "beer": "Molson Canadian 67",
      "brewery": "Molson Coors Canada",
      "category": "Light Lager",
      "alcohol": "3.00%",
      "ratings": "66",
      "score": "1.89"
    },
    {
      "rank": 30,
      "beer": "Olde English 800",
      "brewery": "Miller Brewing Co.",
      "category": "Malt Liquor",
      "alcohol": "5.90%",
      "ratings": "1,163",
      "score": "2.14"
    },
    {
      "rank": 31,
      "beer": "Milwaukee's Best Ice",
      "brewery": "Miller Brewing Co.",
      "category": "American Adjunct Lager",
      "alcohol": "5.90%",
      "ratings": "764",
      "score": "2.15"
    },
    {
      "rank": 32,
      "beer": "Bud Light Lime",
      "brewery": "Anheuser-Busch",
      "category": "Light Lager",
      "alcohol": "4.20%",
      "ratings": "2,728",
      "score": "2.19"
    },
    {
      "rank": 33,
      "beer": "Budweiser & Clamato Chelada",
      "brewery": "Anheuser-Busch",
      "category": "Fruit and Field Beer",
      "alcohol": "5.00%",
      "ratings": "363",
      "score": "2.16"
    },
    {
      "rank": 34,
      "beer": "Michelob Light",
      "brewery": "Anheuser-Busch",
      "category": "Light Lager",
      "alcohol": "4.30%",
      "ratings": "921",
      "score": "2.2"
    },
    {
      "rank": 35,
      "beer": "Miller Lite",
      "brewery": "Miller Brewing Co.",
      "category": "Light Lager",
      "alcohol": "4.17%",
      "ratings": "5,125",
      "score": "2.23"
    },
    {
      "rank": 36,
      "beer": "Colt 45 Strong Beer",
      "brewery": "Pabst Brewing Company",
      "category": "Malt Liquor",
      "alcohol": "8.00%",
      "ratings": "50",
      "score": "1.91"
    },
    {
      "rank": 37,
      "beer": "Old Milwaukee Ice",
      "brewery": "Pabst Brewing Company",
      "category": "American Adjunct Lager",
      "alcohol": "5.90%",
      "ratings": "91",
      "score": "2.06"
    },
    {
      "rank": 38,
      "beer": "Bud Light Platinum",
      "brewery": "Anheuser-Busch",
      "category": "American Adjunct Lager",
      "alcohol": "6.00%",
      "ratings": "2,012",
      "score": "2.25"
    },
    {
      "rank": 39,
      "beer": "Coors Light Iced T",
      "brewery": "Coors Brewing Company (Molson-Coors)",
      "category": "American Adjunct Lager",
      "alcohol": "4.00%",
      "ratings": "55",
      "score": "1.97"
    },
    {
      "rank": 40,
      "beer": "Stroh's Light",
      "brewery": "Pabst Brewing Company",
      "category": "Light Lager",
      "alcohol": "3.82%",
      "ratings": "100",
      "score": "2.13"
    },
    {
      "rank": 41,
      "beer": "Old Milwaukee",
      "brewery": "Sleeman Breweries Ltd.",
      "category": "American Adjunct Lager",
      "alcohol": "5.00%",
      "ratings": "98",
      "score": "2.13"
    },
    {
      "rank": 42,
      "beer": "Colt 45 Malt Liquor",
      "brewery": "Pabst Brewing Company",
      "category": "Malt Liquor",
      "alcohol": "5.61%",
      "ratings": "995",
      "score": "2.28"
    },
    {
      "rank": 43,
      "beer": "Amsterdam Maximator",
      "brewery": "Grolsch Bierbrouwerij N.V.",
      "category": "Doppelbock",
      "alcohol": "11.60%",
      "ratings": "46",
      "score": "1.95"
    },
    {
      "rank": 44,
      "beer": "St. Ides High Gravity Malt Liquor",
      "brewery": "Saint Ides Brewing Company",
      "category": "Malt Liquor",
      "alcohol": "8.20%",
      "ratings": "220",
      "score": "2.23"
    },
    {
      "rank": 45,
      "beer": "Labatt Blue Light",
      "brewery": "Labatt Brewing Company Ltd.",
      "category": "Light Lager",
      "alcohol": "4.00%",
      "ratings": "711",
      "score": "2.28"
    },
    {
      "rank": 46,
      "beer": "Beck's Premier Light",
      "brewery": "Brauerei Beck & Co.",
      "category": "Light Lager",
      "alcohol": "2.30%",
      "ratings": "215",
      "score": "2.24"
    },
    {
      "rank": 47,
      "beer": "Miller Genuine Draft",
      "brewery": "Miller Brewing Co.",
      "category": "American Adjunct Lager",
      "alcohol": "4.66%",
      "ratings": "2,685",
      "score": "2.31"
    },
    {
      "rank": 48,
      "beer": "Jaguar High Gravity Lager",
      "brewery": "Melanie Brewing Company",
      "category": "Malt Liquor",
      "alcohol": "8.30%",
      "ratings": "22",
      "score": "1.6"
    },
    {
      "rank": 49,
      "beer": "Beck's Light",
      "brewery": "Brauerei Beck & Co.",
      "category": "Light Lager",
      "alcohol": "",
      "ratings": "154",
      "score": "2.22"
    },
    {
      "rank": 50,
      "beer": "Bud Light Lime Straw-Ber-Rita",
      "brewery": "Anheuser-Busch",
      "category": "Malt Liquor",
      "alcohol": "8.00%",
      "ratings": "480",
      "score": "2.29"
    },
    {
      "rank": 51,
      "beer": "Dog Bite High Gravity Lager",
      "brewery": "Genesee Brewing Co. / Dundee Brewing Co.",
      "category": "Malt Liquor",
      "alcohol": "8.00%",
      "ratings": "146",
      "score": "2.23"
    },
    {
      "rank": 52,
      "beer": "Coors Non-Alcoholic",
      "brewery": "Coors Brewing Company (Molson-Coors)",
      "category": "Low-Alcohol Beer",
      "alcohol": "0.50%",
      "ratings": "98",
      "score": "2.19"
    },
    {
      "rank": 53,
      "beer": "Tecate Light",
      "brewery": "Cervecer\u00eda Cuauht\u00e9moc Moctezuma, S.A. de C.V.",
      "category": "Light Lager",
      "alcohol": "3.90%",
      "ratings": "346",
      "score": "2.31"
    },
    {
      "rank": 54,
      "beer": "Kirin Light Beer",
      "brewery": "Kirin Brewery Company, Limited",
      "category": "Light Lager",
      "alcohol": "3.20%",
      "ratings": "225",
      "score": "2.29"
    },
    {
      "rank": 55,
      "beer": "O'Doul's Amber",
      "brewery": "Anheuser-Busch",
      "category": "Low-Alcohol Beer",
      "alcohol": "0.50%",
      "ratings": "291",
      "score": "2.31"
    },
    {
      "rank": 56,
      "beer": "Carlton Draught",
      "brewery": "Carlton & United Breweries, Ltd.",
      "category": "American Adjunct Lager",
      "alcohol": "4.60%",
      "ratings": "101",
      "score": "2.22"
    },
    {
      "rank": 57,
      "beer": "Corona Extra",
      "brewery": "Grupo Modelo S.A. de C.V.",
      "category": "American Adjunct Lager",
      "alcohol": "4.60%",
      "ratings": "5,606",
      "score": "2.37"
    },
    {
      "rank": 58,
      "beer": "Crest Super Premium Lager",
      "brewery": "Crest Brewing Company",
      "category": "European Strong Lager",
      "alcohol": "10.00%",
      "ratings": "56",
      "score": "2.11"
    },
    {
      "rank": 59,
      "beer": "Budweiser",
      "brewery": "Anheuser-Busch",
      "category": "American Adjunct Lager",
      "alcohol": "5.00%",
      "ratings": "6,951",
      "score": "2.38"
    },
    {
      "rank": 60,
      "beer": "Pacifico Light",
      "brewery": "Grupo Modelo S.A. de C.V.",
      "category": "American Adjunct Lager",
      "alcohol": "4.50%",
      "ratings": "57",
      "score": "2.12"
    },
    {
      "rank": 61,
      "beer": "Camo Silver Ice",
      "brewery": "Camo Brewing Company",
      "category": "Malt Liquor",
      "alcohol": "10.60%",
      "ratings": "73",
      "score": "2.18"
    },
    {
      "rank": 62,
      "beer": "Heineken Premium Light Lager",
      "brewery": "Heineken Nederland B.V.",
      "category": "Light Lager",
      "alcohol": "3.30%",
      "ratings": "1,056",
      "score": "2.38"
    },
    {
      "rank": 63,
      "beer": "Busch NA",
      "brewery": "Anheuser-Busch",
      "category": "Low-Alcohol Beer",
      "alcohol": "0.50%",
      "ratings": "116",
      "score": "2.27"
    },
    {
      "rank": 64,
      "beer": "Modelo Light",
      "brewery": "Grupo Modelo S.A. de C.V.",
      "category": "Light Lager",
      "alcohol": "2.90%",
      "ratings": "79",
      "score": "2.21"
    },
    {
      "rank": 65,
      "beer": "Desperados",
      "brewery": "Heineken Nederland B.V.",
      "category": "Malt Liquor",
      "alcohol": "5.90%",
      "ratings": "295",
      "score": "2.35"
    },
    {
      "rank": 66,
      "beer": "Boxer Lager",
      "brewery": "Minhas Craft Brewery",
      "category": "American Adjunct Lager",
      "alcohol": "5.00%",
      "ratings": "133",
      "score": "2.29"
    },
    {
      "rank": 67,
      "beer": "Black Label Beer",
      "brewery": "Pabst Brewing Company",
      "category": "American Adjunct Lager",
      "alcohol": "4.00%",
      "ratings": "176",
      "score": "2.33"
    },
    {
      "rank": 68,
      "beer": "Old Milwaukee Beer",
      "brewery": "Pabst Brewing Company",
      "category": "American Adjunct Lager",
      "alcohol": "4.60%",
      "ratings": "902",
      "score": "2.4"
    },
    {
      "rank": 69,
      "beer": "Michelob Ultra Amber",
      "brewery": "Anheuser-Busch",
      "category": "Light Lager",
      "alcohol": "4.00%",
      "ratings": "398",
      "score": "2.38"
    },
    {
      "rank": 70,
      "beer": "Stack 101 High Gravity Smooth Lager",
      "brewery": "United Brands Company",
      "category": "Malt Liquor",
      "alcohol": "9.90%",
      "ratings": "66",
      "score": "2.2"
    },
    {
      "rank": 71,
      "beer": "Pale Ale",
      "brewery": "New Planet Beer Company",
      "category": "American Pale Ale",
      "alcohol": "6.40%",
      "ratings": "50",
      "score": "2.13"
    },
    {
      "rank": 72,
      "beer": "Kirin Lager",
      "brewery": "Kirin Brewery Company, Limited",
      "category": "Japanese Rice Lager",
      "alcohol": "4.90%",
      "ratings": "312",
      "score": "2.38"
    },
    {
      "rank": 73,
      "beer": "Four O Street Legal Malt Liquor",
      "brewery": "Copper Mountain Beverage Company",
      "category": "Malt Liquor",
      "alcohol": "10.00%",
      "ratings": "26",
      "score": "1.87"
    },
    {
      "rank": 74,
      "beer": "Steel Reserve 211 (High Gravity)",
      "brewery": "Miller Brewing Co.",
      "category": "Malt Liquor",
      "alcohol": "8.10%",
      "ratings": "1,427",
      "score": "2.43"
    },
    {
      "rank": 75,
      "beer": "Milwaukee Special Reserve Ice",
      "brewery": "Melanie Brewing Company",
      "category": "American Adjunct Lager",
      "alcohol": "5.90%",
      "ratings": "40",
      "score": "2.08"
    },
    {
      "rank": 76,
      "beer": "Brahma",
      "brewery": "Companhia Cervejaria Brahma",
      "category": "American Adjunct Lager",
      "alcohol": "4.60%",
      "ratings": "270",
      "score": "2.39"
    },
    {
      "rank": 77,
      "beer": "Faxe Extra Strong",
      "brewery": "Royal Unibrew A/S",
      "category": "European Strong Lager",
      "alcohol": "10.00%",
      "ratings": "135",
      "score": "2.34"
    },
    {
      "rank": 78,
      "beer": "Frio Light",
      "brewery": "City Brewing Company, LLC",
      "category": "Light Lager",
      "alcohol": "4.00%",
      "ratings": "49",
      "score": "2.16"
    },
    {
      "rank": 79,
      "beer": "St. Pauli N. A.",
      "brewery": "St. Pauli Brauerei C.L. Wilh. Brandt Gmbh & Co.",
      "category": "Low-Alcohol Beer",
      "alcohol": "0.50%",
      "ratings": "185",
      "score": "2.38"
    },
    {
      "rank": 80,
      "beer": "Skol",
      "brewery": "Cervejarias Reunidas Skol-Caracu",
      "category": "American Adjunct Lager",
      "alcohol": "4.70%",
      "ratings": "142",
      "score": "2.36"
    },
    {
      "rank": 81,
      "beer": "Pabst Blue Ribbon (Canada)",
      "brewery": "Sleeman Breweries Ltd.",
      "category": "American Adjunct Lager",
      "alcohol": "4.90%",
      "ratings": "116",
      "score": "2.34"
    },
    {
      "rank": 82,
      "beer": "OB Lager Beer",
      "brewery": "Oriental Brewery Co., Ltd",
      "category": "American Adjunct Lager",
      "alcohol": "4.50%",
      "ratings": "134",
      "score": "2.36"
    },
    {
      "rank": 83,
      "beer": "Michelob Golden Draft Light",
      "brewery": "Anheuser-Busch",
      "category": "Light Lager",
      "alcohol": "4.10%",
      "ratings": "338",
      "score": "2.43"
    },
    {
      "rank": 84,
      "beer": "Camo 900 High Gravity Lager",
      "brewery": "Camo Brewing Company",
      "category": "Malt Liquor",
      "alcohol": "10.50%",
      "ratings": "18",
      "score": "1.69"
    },
    {
      "rank": 85,
      "beer": "Snow Beer",
      "brewery": "China Resources Breweries Limited",
      "category": "European Pale Lager",
      "alcohol": "4.30%",
      "ratings": "68",
      "score": "2.27"
    },
    {
      "rank": 86,
      "beer": "Amstel Light",
      "brewery": "Amstel Brouwerij B. V.",
      "category": "Light Lager",
      "alcohol": "3.50%",
      "ratings": "1,666",
      "score": "2.47"
    },
    {
      "rank": 87,
      "beer": "Max",
      "brewery": "Hite Brewery Company LTD",
      "category": "American Adjunct Lager",
      "alcohol": "4.50%",
      "ratings": "43",
      "score": "2.15"
    },
    {
      "rank": 88,
      "beer": "Victoria Bitter (VB)",
      "brewery": "Carlton & United Breweries, Ltd.",
      "category": "American Adjunct Lager",
      "alcohol": "4.90%",
      "ratings": "354",
      "score": "2.44"
    },
    {
      "rank": 89,
      "beer": "Famosa (Gallo)",
      "brewery": "Cervecer\u00eda Centro Americana, S.A.",
      "category": "American Adjunct Lager",
      "alcohol": "5.00%",
      "ratings": "311",
      "score": "2.44"
    },
    {
      "rank": 90,
      "beer": "Sol",
      "brewery": "Cervecer\u00eda Cuauht\u00e9moc Moctezuma, S.A. de C.V.",
      "category": "American Adjunct Lager",
      "alcohol": "4.50%",
      "ratings": "1,577",
      "score": "2.48"
    },
    {
      "rank": 91,
      "beer": "Budweiser 66",
      "brewery": "Anheuser-Busch",
      "category": "Light Lager",
      "alcohol": "4.00%",
      "ratings": "17",
      "score": "1.7"
    },
    {
      "rank": 92,
      "beer": "Molson Canadian 6.0 Cold Shots",
      "brewery": "Molson Coors Canada",
      "category": "American Adjunct Lager",
      "alcohol": "6.00%",
      "ratings": "80",
      "score": "2.34"
    },
    {
      "rank": 93,
      "beer": "Icehouse Edge",
      "brewery": "Miller Brewing Co.",
      "category": "Malt Liquor",
      "alcohol": "8.00%",
      "ratings": "184",
      "score": "2.44"
    },
    {
      "rank": 94,
      "beer": "Carling Beer",
      "brewery": "Molson Coors Canada",
      "category": "American Adjunct Lager",
      "alcohol": "4.00%",
      "ratings": "88",
      "score": "2.36"
    },
    {
      "rank": 95,
      "beer": "Cass Fresh",
      "brewery": "Oriental Brewery Co., Ltd",
      "category": "American Adjunct Lager",
      "alcohol": "4.50%",
      "ratings": "204",
      "score": "2.45"
    },
    {
      "rank": 96,
      "beer": "Hurricane High Gravity",
      "brewery": "Anheuser-Busch",
      "category": "Malt Liquor",
      "alcohol": "8.10%",
      "ratings": "419",
      "score": "2.49"
    },
    {
      "rank": 97,
      "beer": "Bud Light Lime Cran-Brrr-Rita",
      "brewery": "Anheuser-Busch",
      "category": "Malt Liquor",
      "alcohol": "8.00%",
      "ratings": "103",
      "score": "2.39"
    },
    {
      "rank": 98,
      "beer": "Game Day Light",
      "brewery": "City Brewing Company, LLC",
      "category": "Light Lager",
      "alcohol": "3.90%",
      "ratings": "26",
      "score": "2"
    },
    {
      "rank": 99,
      "beer": "Michelob Honey Lager",
      "brewery": "Anheuser-Busch",
      "category": "American Amber / Red Lager",
      "alcohol": "4.90%",
      "ratings": "240",
      "score": "2.47"
    },
    {
      "rank": 100,
      "beer": "Genny Light",
      "brewery": "Genesee Brewing Co. / Dundee Brewing Co.",
      "category": "Light Lager",
      "alcohol": "4.00%",
      "ratings": "267",
      "score": "2.48"
    },
    {
      "rank": 101,
      "beer": "Natty Daddy (8%)",
      "brewery": "Anheuser-Busch",
      "category": "Malt Liquor",
      "alcohol": "8.00%",
      "ratings": "416",
      "score": "2.5"
    },
    {
      "rank": 102,
      "beer": "Molson Dry",
      "brewery": "Molson Coors Canada",
      "category": "American Adjunct Lager",
      "alcohol": "5.50%",
      "ratings": "180",
      "score": "2.46"
    },
    {
      "rank": 103,
      "beer": "Lone Star Light",
      "brewery": "Pabst Brewing Company",
      "category": "Light Lager",
      "alcohol": "3.85%",
      "ratings": "100",
      "score": "2.4"
    },
    {
      "rank": 104,
      "beer": "Country Club Malt Liquor",
      "brewery": "Pabst Brewing Company",
      "category": "Malt Liquor",
      "alcohol": "5.86%",
      "ratings": "105",
      "score": "2.41"
    },
    {
      "rank": 105,
      "beer": "Michelob Ultra Infusions Lime & Prickly Pear Cactus",
      "brewery": "Anheuser-Busch",
      "category": "Light Lager",
      "alcohol": "4.00%",
      "ratings": "344",
      "score": "2.5"
    },
    {
      "rank": 106,
      "beer": "Blonde Ale",
      "brewery": "New Planet Beer Company",
      "category": "American Blonde Ale",
      "alcohol": "5.00%",
      "ratings": "25",
      "score": "2"
    },
    {
      "rank": 107,
      "beer": "Molson Ice",
      "brewery": "Molson Coors Canada",
      "category": "American Adjunct Lager",
      "alcohol": "5.60%",
      "ratings": "533",
      "score": "2.52"
    },
    {
      "rank": 108,
      "beer": "Bard's Gold",
      "brewery": "Bard's Tale Beer Company",
      "category": "American Adjunct Lager",
      "alcohol": "4.60%",
      "ratings": "139",
      "score": "2.45"
    },
    {
      "rank": 109,
      "beer": "Extra Dry",
      "brewery": "Tooheys Brewing",
      "category": "American Adjunct Lager",
      "alcohol": "4.40%",
      "ratings": "78",
      "score": "2.38"
    },
    {
      "rank": 110,
      "beer": "Hite",
      "brewery": "Hite Brewery Company LTD",
      "category": "European Pale Lager",
      "alcohol": "4.50%",
      "ratings": "318",
      "score": "2.51"
    },
    {
      "rank": 111,
      "beer": "Antarctica Pilsen",
      "brewery": "Antarctica (Companhia Brasileira De Bebidas)",
      "category": "American Adjunct Lager",
      "alcohol": "5.00%",
      "ratings": "60",
      "score": "2.33"
    },
    {
      "rank": 112,
      "beer": "Champale Golden",
      "brewery": "Pabst Brewing Company",
      "category": "Malt Liquor",
      "alcohol": "5.40%",
      "ratings": "25",
      "score": "2.02"
    },
    {
      "rank": 113,
      "beer": "Minhas Light",
      "brewery": "Minhas Craft Brewery",
      "category": "Light Lager",
      "alcohol": "4.00%",
      "ratings": "22",
      "score": "1.95"
    },
    {
      "rank": 114,
      "beer": "Molson XXX",
      "brewery": "Molson Coors Canada",
      "category": "Malt Liquor",
      "alcohol": "7.30%",
      "ratings": "616",
      "score": "2.54"
    },
    {
      "rank": 115,
      "beer": "Blatz Beer",
      "brewery": "Pabst Brewing Company",
      "category": "American Adjunct Lager",
      "alcohol": "4.90%",
      "ratings": "256",
      "score": "2.51"
    },
    {
      "rank": 116,
      "beer": "Bud Light Lime Mang-o-Rita",
      "brewery": "Anheuser-Busch",
      "category": "Malt Liquor",
      "alcohol": "8.00%",
      "ratings": "207",
      "score": "2.5"
    },
    {
      "rank": 117,
      "beer": "Old Milwaukee Light",
      "brewery": "Pabst Brewing Company",
      "category": "Light Lager",
      "alcohol": "3.88%",
      "ratings": "239",
      "score": "2.51"
    },
    {
      "rank": 118,
      "beer": "Foster's Lager",
      "brewery": "Foster's Group Limited",
      "category": "American Adjunct Lager",
      "alcohol": "5.00%",
      "ratings": "2,271",
      "score": "2.56"
    },
    {
      "rank": 119,
      "beer": "Tecate Original",
      "brewery": "Cervecer\u00eda Cuauht\u00e9moc Moctezuma, S.A. de C.V.",
      "category": "American Adjunct Lager",
      "alcohol": "4.50%",
      "ratings": "2,241",
      "score": "2.56"
    },
    {
      "rank": 120,
      "beer": "Mickey's",
      "brewery": "Miller Brewing Co.",
      "category": "Malt Liquor",
      "alcohol": "5.60%",
      "ratings": "1,418",
      "score": "2.56"
    },
    {
      "rank": 121,
      "beer": "Kaliber",
      "brewery": "Guinness Ltd.",
      "category": "Low-Alcohol Beer",
      "alcohol": "0.50%",
      "ratings": "263",
      "score": "2.52"
    },
    {
      "rank": 122,
      "beer": "Crazy Brewski Imperial Pils",
      "brewery": "Rinku\u0161kiai",
      "category": "Imperial Pilsner",
      "alcohol": "15.00%",
      "ratings": "100",
      "score": "2.44"
    },
    {
      "rank": 123,
      "beer": "Kronenbourg",
      "brewery": "Brasseries Kronenbourg",
      "category": "European Pale Lager",
      "alcohol": "4.20%",
      "ratings": "138",
      "score": "2.48"
    },
    {
      "rank": 124,
      "beer": "Pabst Blue Ribbon Light",
      "brewery": "Pabst Brewing Company",
      "category": "Light Lager",
      "alcohol": "4.19%",
      "ratings": "135",
      "score": "2.48"
    },
    {
      "rank": 125,
      "beer": "Carling Black Label",
      "brewery": "Molson Coors Canada",
      "category": "American Adjunct Lager",
      "alcohol": "5.00%",
      "ratings": "229",
      "score": "2.52"
    },
    {
      "rank": 126,
      "beer": "Golden Eagle Beer",
      "brewery": "Mohan Breweries & Distilleries Ltd",
      "category": "American Adjunct Lager",
      "alcohol": "4.80%",
      "ratings": "50",
      "score": "2.33"
    },
    {
      "rank": 127,
      "beer": "Iron City Beer",
      "brewery": "Pittsburgh Brewing Co.",
      "category": "American Adjunct Lager",
      "alcohol": "4.70%",
      "ratings": "600",
      "score": "2.57"
    },
    {
      "rank": 128,
      "beer": "Molson Canadian Light",
      "brewery": "Molson Coors Canada",
      "category": "Light Lager",
      "alcohol": "4.00%",
      "ratings": "156",
      "score": "2.51"
    },
    {
      "rank": 129,
      "beer": "Lone Star Beer",
      "brewery": "Pabst Brewing Company",
      "category": "American Adjunct Lager",
      "alcohol": "4.65%",
      "ratings": "945",
      "score": "2.58"
    },
    {
      "rank": 130,
      "beer": "Dutch Gold Imported",
      "brewery": "Stella Artois",
      "category": "European Pale Lager",
      "alcohol": "4.20%",
      "ratings": "15",
      "score": "1.73"
    },
    {
      "rank": 131,
      "beer": "Molson Canadian Ice",
      "brewery": "Molson Coors Canada",
      "category": "American Adjunct Lager",
      "alcohol": "5.50%",
      "ratings": "83",
      "score": "2.44"
    },
    {
      "rank": 132,
      "beer": "Schaefer Light",
      "brewery": "F & M Schaefer Brewing Co.",
      "category": "Light Lager",
      "alcohol": "",
      "ratings": "58",
      "score": "2.38"
    },
    {
      "rank": 133,
      "beer": "Castle Lager",
      "brewery": "South African Breweries plc",
      "category": "American Adjunct Lager",
      "alcohol": "5.00%",
      "ratings": "169",
      "score": "2.53"
    },
    {
      "rank": 134,
      "beer": "I.C. Light",
      "brewery": "Pittsburgh Brewing Co.",
      "category": "Light Lager",
      "alcohol": "4.15%",
      "ratings": "262",
      "score": "2.56"
    },
    {
      "rank": 135,
      "beer": "XXXX Gold",
      "brewery": "Castlemaine Perkins",
      "category": "American Adjunct Lager",
      "alcohol": "3.50%",
      "ratings": "98",
      "score": "2.48"
    },
    {
      "rank": 136,
      "beer": "Taiwan Beer",
      "brewery": "Taiwan Tobacco & Liquor Corporation",
      "category": "Japanese Rice Lager",
      "alcohol": "4.50%",
      "ratings": "153",
      "score": "2.53"
    },
    {
      "rank": 137,
      "beer": "Light Beer",
      "brewery": "Kirkland Signature / Costco Wholesale Corporation",
      "category": "Light Lager",
      "alcohol": "4.20%",
      "ratings": "123",
      "score": "2.51"
    },
    {
      "rank": 138,
      "beer": "San Mig Light",
      "brewery": "San Miguel Brewery Inc.",
      "category": "Light Lager",
      "alcohol": "5.00%",
      "ratings": "122",
      "score": "2.51"
    },
    {
      "rank": 139,
      "beer": "Red Stripe Light",
      "brewery": "Desnoes & Geddes Limited",
      "category": "Light Lager",
      "alcohol": "3.60%",
      "ratings": "166",
      "score": "2.54"
    },
    {
      "rank": 140,
      "beer": "Schmidt",
      "brewery": "Pabst Brewing Company",
      "category": "American Adjunct Lager",
      "alcohol": "4.40%",
      "ratings": "185",
      "score": "2.55"
    },
    {
      "rank": 141,
      "beer": "New",
      "brewery": "Tooheys Brewing",
      "category": "American Adjunct Lager",
      "alcohol": "4.60%",
      "ratings": "184",
      "score": "2.55"
    },
    {
      "rank": 142,
      "beer": "Tsingtao Pure Draft",
      "brewery": "Tsingtao Brewery Co., Ltd.",
      "category": "American Adjunct Lager",
      "alcohol": "4.80%",
      "ratings": "90",
      "score": "2.48"
    },
    {
      "rank": 143,
      "beer": "Beck's Non-Alcoholic",
      "brewery": "Brauerei Beck & Co.",
      "category": "Low-Alcohol Beer",
      "alcohol": "0.50%",
      "ratings": "135",
      "score": "2.53"
    },
    {
      "rank": 144,
      "beer": "Rolling Rock Extra Pale",
      "brewery": "Latrobe Brewing Co.",
      "category": "American Adjunct Lager",
      "alcohol": "4.40%",
      "ratings": "3,233",
      "score": "2.62"
    },
    {
      "rank": 145,
      "beer": "Labatt Max Ice",
      "brewery": "Labatt Brewing Company Ltd.",
      "category": "Malt Liquor",
      "alcohol": "8.00%",
      "ratings": "110",
      "score": "2.51"
    },
    {
      "rank": 146,
      "beer": "Kokanee",
      "brewery": "Columbia Brewery",
      "category": "American Adjunct Lager",
      "alcohol": "5.00%",
      "ratings": "227",
      "score": "2.57"
    },
    {
      "rank": 147,
      "beer": "Genesee Ice Beer",
      "brewery": "Genesee Brewing Co. / Dundee Brewing Co.",
      "category": "American Adjunct Lager",
      "alcohol": "5.50%",
      "ratings": "217",
      "score": "2.57"
    },
    {
      "rank": 148,
      "beer": "Coors Extra Gold",
      "brewery": "Coors Brewing Company (Molson-Coors)",
      "category": "American Adjunct Lager",
      "alcohol": "5.00%",
      "ratings": "329",
      "score": "2.59"
    },
    {
      "rank": 149,
      "beer": "Camo Black Extra",
      "brewery": "Camo Brewing Company",
      "category": "Malt Liquor",
      "alcohol": "12.20%",
      "ratings": "36",
      "score": "2.28"
    },
    {
      "rank": 150,
      "beer": "The Legendary Duff Beer",
      "brewery": "DUFF Sales & Marketing E.K.",
      "category": "German Pilsner",
      "alcohol": "4.90%",
      "ratings": "66",
      "score": "2.44"
    },
    {
      "rank": 151,
      "beer": "Redbridge",
      "brewery": "Anheuser-Busch",
      "category": "American Amber / Red Lager",
      "alcohol": "4.00%",
      "ratings": "554",
      "score": "2.61"
    },
    {
      "rank": 152,
      "beer": "Palma Louca Pale Pilsner",
      "brewery": "Cervejaria Kaiser",
      "category": "German Pilsner",
      "alcohol": "4.50%",
      "ratings": "279",
      "score": "2.59"
    },
    {
      "rank": 153,
      "beer": "Yanjing Beer",
      "brewery": "Beijing Yanjing Beer Group Corporation",
      "category": "European Pale Lager",
      "alcohol": "4.70%",
      "ratings": "261",
      "score": "2.59"
    },
    {
      "rank": 154,
      "beer": "Cara Pils",
      "brewery": "Brasserie Piedboeuf",
      "category": "German Pilsner",
      "alcohol": "4.90%",
      "ratings": "26",
      "score": "2.16"
    },
    {
      "rank": 155,
      "beer": "Warsteiner Premium Fresh",
      "brewery": "Warsteiner Brauerei",
      "category": "Low-Alcohol Beer",
      "alcohol": "0.50%",
      "ratings": "68",
      "score": "2.46"
    },
    {
      "rank": 156,
      "beer": "Bavaria 8.6 Original",
      "brewery": "Swinkels Family Brewers",
      "category": "European Strong Lager",
      "alcohol": "7.90%",
      "ratings": "167",
      "score": "2.57"
    },
    {
      "rank": 157,
      "beer": "Stroh's",
      "brewery": "Pabst Brewing Company",
      "category": "American Adjunct Lager",
      "alcohol": "4.50%",
      "ratings": "662",
      "score": "2.63"
    },
    {
      "rank": 158,
      "beer": "Landshark Lager",
      "brewery": "Margaritaville Brewing Co.",
      "category": "American Adjunct Lager",
      "alcohol": "4.60%",
      "ratings": "2,077",
      "score": "2.65"
    },
    {
      "rank": 159,
      "beer": "Old Milwaukee Non Alcoholic",
      "brewery": "Pabst Brewing Company",
      "category": "Low-Alcohol Beer",
      "alcohol": "0.40%",
      "ratings": "66",
      "score": "2.47"
    },
    {
      "rank": 160,
      "beer": "Mountain Crest Classic Lager Beer",
      "brewery": "Minhas Craft Brewery",
      "category": "American Adjunct Lager",
      "alcohol": "5.50%",
      "ratings": "48",
      "score": "2.4"
    },
    {
      "rank": 161,
      "beer": "Alexander Keith's India Pale Ale",
      "brewery": "Alexander Keith's",
      "category": "American Blonde Ale",
      "alcohol": "5.00%",
      "ratings": "703",
      "score": "2.64"
    },
    {
      "rank": 162,
      "beer": "Labatt Blue Light Lime",
      "brewery": "Labatt Brewing Company Ltd.",
      "category": "Light Lager",
      "alcohol": "4.00%",
      "ratings": "114",
      "score": "2.55"
    },
    {
      "rank": 163,
      "beer": "Amstel Lager",
      "brewery": "Amstel Brouwerij B. V.",
      "category": "European Pale Lager",
      "alcohol": "5.00%",
      "ratings": "422",
      "score": "2.63"
    },
    {
      "rank": 164,
      "beer": "Michelob Golden Draft",
      "brewery": "Anheuser-Busch",
      "category": "American Adjunct Lager",
      "alcohol": "4.70%",
      "ratings": "150",
      "score": "2.58"
    },
    {
      "rank": 165,
      "beer": "Buckler Non-Alcoholic Brew",
      "brewery": "Heineken Nederland B.V.",
      "category": "Low-Alcohol Beer",
      "alcohol": "0.50%",
      "ratings": "170",
      "score": "2.59"
    },
    {
      "rank": 166,
      "beer": "Amnesia IPA",
      "brewery": "Indian Wells Brewing Company",
      "category": "American IPA",
      "alcohol": "7.20%",
      "ratings": "109",
      "score": "2.55"
    },
    {
      "rank": 167,
      "beer": "Carling Lager",
      "brewery": "Molson Coors Canada",
      "category": "American Adjunct Lager",
      "alcohol": "4.90%",
      "ratings": "45",
      "score": "2.39"
    },
    {
      "rank": 168,
      "beer": "Coors Banquet",
      "brewery": "Coors Brewing Company (Molson-Coors)",
      "category": "American Adjunct Lager",
      "alcohol": "5.00%",
      "ratings": "3,379",
      "score": "2.66"
    },
    {
      "rank": 169,
      "beer": "Presidente Light",
      "brewery": "Cervecer\u00eda Nacional Dominicana",
      "category": "Light Lager",
      "alcohol": "4.20%",
      "ratings": "139",
      "score": "2.58"
    },
    {
      "rank": 170,
      "beer": "Hahn Premium Light",
      "brewery": "Hahn Brewing Co. Pty. Ltd.",
      "category": "Light Lager",
      "alcohol": "2.70%",
      "ratings": "33",
      "score": "2.3"
    },
    {
      "rank": 171,
      "beer": "Skol Beer",
      "brewery": "Turk Tuborg Brewing and Malting",
      "category": "European Pale Lager",
      "alcohol": "4.80%",
      "ratings": "45",
      "score": "2.4"
    },
    {
      "rank": 172,
      "beer": "San Miguel Especial",
      "brewery": "San Miguel Fabricas De Cervaza Y Maltas S.A.",
      "category": "European Pale Lager",
      "alcohol": "5.40%",
      "ratings": "193",
      "score": "2.61"
    },
    {
      "rank": 173,
      "beer": "Brahma Chopp",
      "brewery": "Companhia Cervejaria Brahma",
      "category": "American Adjunct Lager",
      "alcohol": "5.00%",
      "ratings": "98",
      "score": "2.55"
    },
    {
      "rank": 174,
      "beer": "Side Pocket High Gravity Ale",
      "brewery": "City Brewing Company, LLC",
      "category": "Malt Liquor",
      "alcohol": "8.50%",
      "ratings": "18",
      "score": "2"
    },
    {
      "rank": 175,
      "beer": "333 Premium Export Beer",
      "brewery": "Saigon Beer Company",
      "category": "American Adjunct Lager",
      "alcohol": "5.30%",
      "ratings": "72",
      "score": "2.51"
    },
    {
      "rank": 176,
      "beer": "Natty Daddy (6%)",
      "brewery": "Anheuser-Busch",
      "category": "American Adjunct Lager",
      "alcohol": "6.00%",
      "ratings": "12",
      "score": "1.67"
    },
    {
      "rank": 177,
      "beer": "Schaefer",
      "brewery": "F & M Schaefer Brewing Co.",
      "category": "American Adjunct Lager",
      "alcohol": "4.60%",
      "ratings": "296",
      "score": "2.64"
    },
    {
      "rank": 178,
      "beer": "Kalik",
      "brewery": "Commonwealth Brewery Ltd.",
      "category": "American Adjunct Lager",
      "alcohol": "5.00%",
      "ratings": "369",
      "score": "2.65"
    },
    {
      "rank": 179,
      "beer": "Sapporo Light Beer",
      "brewery": "Sapporo Breweries Ltd.",
      "category": "Light Lager",
      "alcohol": "3.90%",
      "ratings": "91",
      "score": "2.55"
    },
    {
      "rank": 180,
      "beer": "Maclay's Traditional Pale Ale",
      "brewery": "Sleeman Breweries Ltd.",
      "category": "English Pale Ale",
      "alcohol": "5.00%",
      "ratings": "69",
      "score": "2.51"
    },
    {
      "rank": 181,
      "beer": "Old Style Light",
      "brewery": "Pabst Brewing Company",
      "category": "Light Lager",
      "alcohol": "4.12%",
      "ratings": "82",
      "score": "2.54"
    },
    {
      "rank": 182,
      "beer": "Boxer Ice",
      "brewery": "Minhas Craft Brewery",
      "category": "American Adjunct Lager",
      "alcohol": "5.50%",
      "ratings": "38",
      "score": "2.37"
    },
    {
      "rank": 183,
      "beer": "Royal Challenge Indian Premium Lager",
      "brewery": "Shaw Wallace & Company Ltd.",
      "category": "American Adjunct Lager",
      "alcohol": "5.00%",
      "ratings": "38",
      "score": "2.37"
    },
    {
      "rank": 184,
      "beer": "Hahn Super Dry",
      "brewery": "Hahn Brewing Co. Pty. Ltd.",
      "category": "American Adjunct Lager",
      "alcohol": "4.60%",
      "ratings": "49",
      "score": "2.45"
    },
    {
      "rank": 185,
      "beer": "Cruzcampo Pilsener",
      "brewery": "Grupo Cruzcampo SA",
      "category": "German Pilsner",
      "alcohol": "4.80%",
      "ratings": "114",
      "score": "2.59"
    },
    {
      "rank": 186,
      "beer": "Labatt Blue",
      "brewery": "Labatt Brewing Company Ltd.",
      "category": "American Adjunct Lager",
      "alcohol": "5.00%",
      "ratings": "2,299",
      "score": "2.69"
    },
    {
      "rank": 187,
      "beer": "Pearl River Lager Beer",
      "brewery": "Guangzhou Zhujiang Brewery Co. Ltd.",
      "category": "European Pale Lager",
      "alcohol": "5.30%",
      "ratings": "39",
      "score": "2.39"
    },
    {
      "rank": 188,
      "beer": "Genesee Beer",
      "brewery": "Genesee Brewing Co. / Dundee Brewing Co.",
      "category": "American Adjunct Lager",
      "alcohol": "4.50%",
      "ratings": "690",
      "score": "2.68"
    },
    {
      "rank": 189,
      "beer": "Pink Killer",
      "brewery": "Brasserie de Silly S.A.",
      "category": "Fruit and Field Beer",
      "alcohol": "5.00%",
      "ratings": "134",
      "score": "2.61"
    },
    {
      "rank": 190,
      "beer": "Gallo Draft",
      "brewery": "Cervecer\u00eda Centro Americana, S.A.",
      "category": "Light Lager",
      "alcohol": "4.40%",
      "ratings": "29",
      "score": "2.29"
    },
    {
      "rank": 191,
      "beer": "Old Monk 10000",
      "brewery": "Mohan Breweries & Distilleries Ltd",
      "category": "Malt Liquor",
      "alcohol": "8.00%",
      "ratings": "91",
      "score": "2.57"
    },
    {
      "rank": 192,
      "beer": "Quilmes",
      "brewery": "Cervecer\u00eda y Malter\u00eda Quilmes / Grupo Bemberg",
      "category": "European Pale Lager",
      "alcohol": "4.90%",
      "ratings": "541",
      "score": "2.68"
    },
    {
      "rank": 193,
      "beer": "Yanjing 11\u00ba Premium",
      "brewery": "Beijing Yanjing Beer Group Corporation",
      "category": "American Adjunct Lager",
      "alcohol": "4.50%",
      "ratings": "25",
      "score": "2.23"
    },
    {
      "rank": 194,
      "beer": "Cisk XS Extra Lager",
      "brewery": "Simonds Farsons Cisk Plc.",
      "category": "European Strong Lager",
      "alcohol": "9.00%",
      "ratings": "21",
      "score": "2.14"
    },
    {
      "rank": 195,
      "beer": "Red Horse Beer: Extra Strong",
      "brewery": "San Miguel Brewery Inc.",
      "category": "Malt Liquor",
      "alcohol": "6.90%",
      "ratings": "139",
      "score": "2.62"
    },
    {
      "rank": 196,
      "beer": "Burleigh Bighead",
      "brewery": "Burleigh Brewing Co.",
      "category": "Light Lager",
      "alcohol": "4.20%",
      "ratings": "23",
      "score": "2.19"
    },
    {
      "rank": 197,
      "beer": "Labatt Ice",
      "brewery": "Labatt Brewing Company Ltd.",
      "category": "American Adjunct Lager",
      "alcohol": "5.60%",
      "ratings": "251",
      "score": "2.66"
    },
    {
      "rank": 198,
      "beer": "XXXX Bitter",
      "brewery": "Castlemaine Perkins",
      "category": "American Adjunct Lager",
      "alcohol": "4.40%",
      "ratings": "74",
      "score": "2.55"
    },
    {
      "rank": 199,
      "beer": "Taj Mahal Premium Lager",
      "brewery": "United Breweries - UB Group",
      "category": "American Adjunct Lager",
      "alcohol": "4.50%",
      "ratings": "576",
      "score": "2.69"
    },
    {
      "rank": 200,
      "beer": "Hell On High Quad Bock",
      "brewery": "Rinku\u0161kiai",
      "category": "Doppelbock",
      "alcohol": "14.00%",
      "ratings": "84",
      "score": "2.57"
    },
    {
      "rank": 201,
      "beer": "Crazy Stallion",
      "brewery": "City Brewing Company, LLC",
      "category": "Malt Liquor",
      "alcohol": "5.90%",
      "ratings": "83",
      "score": "2.57"
    },
    {
      "rank": 202,
      "beer": "Cobra",
      "brewery": "United Breweries - UB Group",
      "category": "American Adjunct Lager",
      "alcohol": "5.00%",
      "ratings": "76",
      "score": "2.56"
    },
    {
      "rank": 203,
      "beer": "Lucky Buddha Enlightened Beer",
      "brewery": "The Lucky Drink Company",
      "category": "Japanese Rice Lager",
      "alcohol": "4.80%",
      "ratings": "784",
      "score": "2.7"
    },
    {
      "rank": 204,
      "beer": "Schlitz O.M.L. (Malt Liquor)",
      "brewery": "Pabst Brewing Company",
      "category": "Malt Liquor",
      "alcohol": "5.90%",
      "ratings": "211",
      "score": "2.66"
    },
    {
      "rank": 205,
      "beer": "Tiger Beer",
      "brewery": "Asia Pacific Breweries Limited",
      "category": "European Pale Lager",
      "alcohol": "5.00%",
      "ratings": "1,188",
      "score": "2.71"
    },
    {
      "rank": 206,
      "beer": "Boris (Le Flacon D'Alsace)",
      "brewery": "Brasserie Licorne",
      "category": "European Pale Lager",
      "alcohol": "5.50%",
      "ratings": "90",
      "score": "2.59"
    },
    {
      "rank": 207,
      "beer": "I.C. Light Mango",
      "brewery": "Pittsburgh Brewing Co.",
      "category": "Light Lager",
      "alcohol": "3.80%",
      "ratings": "73",
      "score": "2.56"
    },
    {
      "rank": 208,
      "beer": "Boatswain Double IPA (Twin Screw Steamer)",
      "brewery": "Minhas Craft Brewery",
      "category": "Imperial IPA",
      "alcohol": "8.40%",
      "ratings": "551",
      "score": "2.7"
    },
    {
      "rank": 209,
      "beer": "Boatswain American IPA",
      "brewery": "Minhas Craft Brewery",
      "category": "American IPA",
      "alcohol": "6.70%",
      "ratings": "359",
      "score": "2.69"
    },
    {
      "rank": 210,
      "beer": "Becks's Vier",
      "brewery": "Brauerei Beck & Co.",
      "category": "European Pale Lager",
      "alcohol": "4.00%",
      "ratings": "38",
      "score": "2.42"
    },
    {
      "rank": 211,
      "beer": "Imperial Jack",
      "brewery": "Rhinelander Brewing Company",
      "category": "Imperial IPA",
      "alcohol": "8.50%",
      "ratings": "202",
      "score": "2.67"
    },
    {
      "rank": 212,
      "beer": "Angkor Beer",
      "brewery": "Cambrew / Angkor Brewery",
      "category": "American Adjunct Lager",
      "alcohol": "5.00%",
      "ratings": "69",
      "score": "2.56"
    },
    {
      "rank": 213,
      "beer": "Carta Blanca",
      "brewery": "Cervecer\u00eda Cuauht\u00e9moc Moctezuma, S.A. de C.V.",
      "category": "American Adjunct Lager",
      "alcohol": "4.50%",
      "ratings": "624",
      "score": "2.71"
    },
    {
      "rank": 214,
      "beer": "Grolsch Krachtig Kanon",
      "brewery": "Grolsch Bierbrouwerij N.V.",
      "category": "European Strong Lager",
      "alcohol": "11.60%",
      "ratings": "65",
      "score": "2.55"
    },
    {
      "rank": 215,
      "beer": "Laker Ice Premium Lager",
      "brewery": "Waterloo Brewing",
      "category": "American Adjunct Lager",
      "alcohol": "5.50%",
      "ratings": "32",
      "score": "2.37"
    },
    {
      "rank": 216,
      "beer": "Miller High Life",
      "brewery": "Miller Brewing Co.",
      "category": "American Adjunct Lager",
      "alcohol": "4.60%",
      "ratings": "4,320",
      "score": "2.73"
    },
    {
      "rank": 217,
      "beer": "Lost Lake Naturally Brewed Pilsner",
      "brewery": "Melanie Brewing Company",
      "category": "American Lager",
      "alcohol": "4.20%",
      "ratings": "52",
      "score": "2.51"
    },
    {
      "rank": 218,
      "beer": "Amigos",
      "brewery": "Global Brands Ltd.",
      "category": "American Lager",
      "alcohol": "5.50%",
      "ratings": "18",
      "score": "2.09"
    },
    {
      "rank": 219,
      "beer": "Oculto",
      "brewery": "Anheuser-Busch",
      "category": "Fruit and Field Beer",
      "alcohol": "6.00%",
      "ratings": "476",
      "score": "2.71"
    },
    {
      "rank": 220,
      "beer": "Sleeman Silver Creek Lager",
      "brewery": "Sleeman Breweries Ltd.",
      "category": "American Lager",
      "alcohol": "5.00%",
      "ratings": "86",
      "score": "2.6"
    },
    {
      "rank": 221,
      "beer": "Bergenbier",
      "brewery": "Bergenbier SA",
      "category": "European Pale Lager",
      "alcohol": "5.00%",
      "ratings": "34",
      "score": "2.4"
    },
    {
      "rank": 222,
      "beer": "Polar Pilsen",
      "brewery": "Cervecer\u00eda Polar",
      "category": "European Pale Lager",
      "alcohol": "4.50%",
      "ratings": "163",
      "score": "2.67"
    },
    {
      "rank": 223,
      "beer": "Heineken Lager Beer",
      "brewery": "Heineken Nederland B.V.",
      "category": "European Pale Lager",
      "alcohol": "5.00%",
      "ratings": "5,705",
      "score": "2.74"
    },
    {
      "rank": 224,
      "beer": "Old German",
      "brewery": "Pittsburgh Brewing Co.",
      "category": "American Adjunct Lager",
      "alcohol": "4.20%",
      "ratings": "138",
      "score": "2.66"
    },
    {
      "rank": 225,
      "beer": "Birra Peroni",
      "brewery": "Birra Peroni Industriale S.p.A.",
      "category": "American Adjunct Lager",
      "alcohol": "4.70%",
      "ratings": "474",
      "score": "2.72"
    },
    {
      "rank": 226,
      "beer": "Kirin Ichiban",
      "brewery": "Kirin Brewery Company, Limited",
      "category": "American Lager",
      "alcohol": "5.00%",
      "ratings": "2,115",
      "score": "2.74"
    },
    {
      "rank": 227,
      "beer": "Bud Light Lime Apple-Ahhh-Rita",
      "brewery": "Anheuser-Busch",
      "category": "Malt Liquor",
      "alcohol": "8.00%",
      "ratings": "69",
      "score": "2.58"
    },
    {
      "rank": 228,
      "beer": "Ichnusa",
      "brewery": "Heineken Italia SpA",
      "category": "European Pale Lager",
      "alcohol": "4.70%",
      "ratings": "65",
      "score": "2.57"
    },
    {
      "rank": 229,
      "beer": "Hoegaarden Citron",
      "brewery": "Brouwerij van Hoegaarden",
      "category": "Fruit and Field Beer",
      "alcohol": "3.00%",
      "ratings": "34",
      "score": "2.41"
    },
    {
      "rank": 230,
      "beer": "Chill Caribbean Beer",
      "brewery": "Brouwerij Nacional Balashi",
      "category": "European Pale Lager",
      "alcohol": "5.00%",
      "ratings": "61",
      "score": "2.56"
    },
    {
      "rank": 231,
      "beer": "Moosehead Light",
      "brewery": "Moosehead Breweries Ltd.",
      "category": "Light Lager",
      "alcohol": "4.00%",
      "ratings": "88",
      "score": "2.62"
    },
    {
      "rank": 232,
      "beer": "Redd's Apple Ale",
      "brewery": "Miller Brewing Co.",
      "category": "Fruit and Field Beer",
      "alcohol": "5.00%",
      "ratings": "1,131",
      "score": "2.74"
    },
    {
      "rank": 233,
      "beer": "Bir Bintang Pilsner",
      "brewery": "Bintang",
      "category": "American Adjunct Lager",
      "alcohol": "4.70%",
      "ratings": "160",
      "score": "2.68"
    },
    {
      "rank": 234,
      "beer": "Dos Equis Special Lager",
      "brewery": "Cervecer\u00eda Cuauht\u00e9moc Moctezuma, S.A. de C.V.",
      "category": "American Adjunct Lager",
      "alcohol": "4.20%",
      "ratings": "3,007",
      "score": "2.75"
    },
    {
      "rank": 235,
      "beer": "Mythos Hellenic Lager Beer",
      "brewery": "Mythos Breweries S.A.",
      "category": "European Pale Lager",
      "alcohol": "4.70%",
      "ratings": "791",
      "score": "2.74"
    },
    {
      "rank": 236,
      "beer": "Carib Ginger Shandy",
      "brewery": "Carib Brewery Limited",
      "category": "Herb and Spice Beer",
      "alcohol": "1.20%",
      "ratings": "35",
      "score": "2.43"
    },
    {
      "rank": 237,
      "beer": "Cerveza Pacifico Clara",
      "brewery": "Grupo Modelo S.A. de C.V.",
      "category": "American Adjunct Lager",
      "alcohol": "4.50%",
      "ratings": "2,287",
      "score": "2.75"
    },
    {
      "rank": 238,
      "beer": "Molson Golden",
      "brewery": "Molson Coors Canada",
      "category": "American Adjunct Lager",
      "alcohol": "5.00%",
      "ratings": "703",
      "score": "2.74"
    },
    {
      "rank": 239,
      "beer": "Bud Light Lime Peach-A-Rita",
      "brewery": "Anheuser-Busch",
      "category": "Malt Liquor",
      "alcohol": "8.00%",
      "ratings": "26",
      "score": "2.32"
    },
    {
      "rank": 240,
      "beer": "Modelo Especial Chelada",
      "brewery": "Grupo Modelo S.A. de C.V.",
      "category": "Fruit and Field Beer",
      "alcohol": "3.50%",
      "ratings": "143",
      "score": "2.68"
    },
    {
      "rank": 241,
      "beer": "Tennent's Super Strong Lager",
      "brewery": "Tennent Caledonian Breweries",
      "category": "European Strong Lager",
      "alcohol": "9.00%",
      "ratings": "81",
      "score": "2.62"
    },
    {
      "rank": 242,
      "beer": "Cerveza Aguila",
      "brewery": "Cervecer\u00eda De Barranquilla",
      "category": "American Adjunct Lager",
      "alcohol": "4.00%",
      "ratings": "176",
      "score": "2.7"
    },
    {
      "rank": 243,
      "beer": "Thule Export Beer",
      "brewery": "Viking Brewery - Vifilfell Ltd.",
      "category": "American Adjunct Lager",
      "alcohol": "5.00%",
      "ratings": "37",
      "score": "2.46"
    },
    {
      "rank": 244,
      "beer": "Tuborg Pilsner Beer (Green / Gr\u00f8n)",
      "brewery": "Tuborgs Bryggerier A/S",
      "category": "European Pale Lager",
      "alcohol": "4.60%",
      "ratings": "322",
      "score": "2.73"
    },
    {
      "rank": 245,
      "beer": "Cerveza Cristal",
      "brewery": "Cerveceria Bucanero S.A.",
      "category": "American Adjunct Lager",
      "alcohol": "4.90%",
      "ratings": "124",
      "score": "2.68"
    },
    {
      "rank": 246,
      "beer": "Presidente",
      "brewery": "Cervecer\u00eda Nacional Dominicana",
      "category": "American Adjunct Lager",
      "alcohol": "5.00%",
      "ratings": "897",
      "score": "2.76"
    },
    {
      "rank": 247,
      "beer": "Clasica",
      "brewery": "Mahou S.A.",
      "category": "European Pale Lager",
      "alcohol": "4.80%",
      "ratings": "91",
      "score": "2.65"
    },
    {
      "rank": 248,
      "beer": "Grain Belt Premium Light",
      "brewery": "August Schell Brewing Company",
      "category": "Light Lager",
      "alcohol": "3.90%",
      "ratings": "50",
      "score": "2.55"
    },
    {
      "rank": 249,
      "beer": "Superior",
      "brewery": "Cervecer\u00eda Cuauht\u00e9moc Moctezuma, S.A. de C.V.",
      "category": "American Adjunct Lager",
      "alcohol": "3.60%",
      "ratings": "77",
      "score": "2.63"
    },
    {
      "rank": 250,
      "beer": "Earthquake High Gravity Lager (10%)",
      "brewery": "City Brewing Company, LLC",
      "category": "Malt Liquor",
      "alcohol": "10.00%",
      "ratings": "72",
      "score": "2.62"
    }
  ]
}